0 3 4 0 10 18 0 0 0 0
3 0 1 5 9 0 0 0 0 0
4 1 0 4 0 0 0 0 0 0
0 5 4 0 7 0 9 9 0 0
10 9 0 7 0 8 8 0 9 0
18 0 0 0 8 0 0 0 9 9
0 0 0 9 8 0 0 2 2 0
0 0 0 9 0 0 2 0 4 6
0 0 0 0 9 9 2 4 0 3
0 0 0 0 0 9 0 6 3 0